…
We can see from the output of `get_artist_albums()` that we have singles mixed in with full album releases. While these can be identified using the `album_release_type` column, I've noticed that column sometimes stil allows Singles to slip in as full albums. Instead, we'll filter to full albums by filtering on `album_track_count`.

``` r
ts_full_albums <- ts_albums %>% 
  filter(album_track_count >= 5)

ts_full_albums
#> # A tibble: 28 x 12
#>    album_id album_mbid        album_name     album_rating album_track_cou…
#>       <int> <chr>             <chr>                 <int>            <int>
#>  1 26806100 <NA>              reputation              100               15
#>  2 20211386 <NA>              Taylor Swift …           82               13
#>  3 19649460 <NA>              1989                    100               13
#>  4 15342090 <NA>              Taylor Swift …           47               16
#>  5 14321209 647068db-4ea4-4a… Red Karaoke             100               16
#>  6 11327149 881aa3c6-86e6-4f… Red                     100               22
#>  7 15342070 <NA>              Speak Now: Wo…           28               16
#>  8 15342044 <NA>              Speak Now - W…           65               16
#>  9 26265854 <NA>              Speak Now Wor…           84               16
#> 10 12414703 481d0cba-6d9e-4f… Speak Now               100               14
#> # ... with 18 more rows, and 7 more variables: album_release_date <date>,
#> #   album_release_type <chr>, artist_id <int>, artist_name <chr>,
#> #   album_copyright <chr>, album_label <chr>, updated_time <dttm>
```
…
Now `ts_full_albums` contains all of Taylor's studio albums. Now, let's get the tracks from each of these albums using `get_album_tracks()`.

``` r
ts_tracks <- map_df(ts_full_albums[["album_id"]],
                    get_album_tracks,
                    page_size = max(ts_full_albums[["album_track_count"]]))

ts_tracks
#> # A tibble: 89 x 20
#>    artist_id artist_name        album_id album_name track_id track_name   
#>        <int> <chr>                 <int> <chr>         <int> <chr>        
#>  1    259675 Taylor Swift       26806100 reputation   1.34e8 ...Ready For…
#>  2  34690605 Taylor Swift feat… 26806100 reputation   1.34e8 End Game     
#>  3    259675 Taylor Swift       26806100 reputation   1.34e8 I Did Someth…
#>  4    259675 Taylor Swift       26806100 reputation   1.34e8 Don't Blame …
#>  5    259675 Taylor Swift       26806100 reputation   1.34e8 Delicate     
#>  6    259675 Taylor Swift       26806100 reputation   1.34e8 Look What Yo…
#>  7    259675 Taylor Swift       26806100 reputation   1.34e8 So It Goes...
#>  8    259675 Taylor Swift       26806100 reputation   1.34e8 Gorgeous     
#>  9    259675 Taylor Swift       26806100 reputation   1.34e8 Getaway Car  
#> 10    259675 Taylor Swift       26806100 reputation   1.34e8 King of My H…
#> # ... with 79 more rows, and 14 more variables: track_rating <int>,
#> #   track_length <int>, commontrack_id <int>, instrumental <int>,
#> #   explicit <int>, has_lyrics <int>, has_lyrics_crowd <int>,
#> #   has_subtitles <int>, has_richsync <int>, num_favourite <int>,
#> #   lyrics_id <int>, subtitle_id <int>, first_release_date <dttm>,
#> #   updated_time <dttm>
```
…
